-------------------------------------------------------------------------------
Test set: com.pete.week6.BookBankTest
-------------------------------------------------------------------------------
Tests run: 6, Failures: 0, Errors: 0, Skipped: 0, Time elapsed: 0 s - in com.pete.week6.BookBankTest
